301.8267195898913 -10
206.48068590297993 -9
141.3506905750422 -8
181.45188429363267 -7
41.78127527790235 -6
36.74157682849997 -5
49.77129275587662 -4
-21.54843159015938 -3
75.4361571381737 -2
-3.8882674060444335 -1
-9.46856287330992 0
-71.3194584463108 1
42.1215633120422 2
49.088012341286515 3
86.97664315575287 4
66.69982327495062 5
122.96273379072505 6
105.46219673639621 7
139.43161572804308 8
281.7900813768265 9
229.67424006279856 10
